<svg width="44" height="44" viewBox="0 0 44 44" fill="none" xmlns="http://www.w3.org/2000/svg">
<path d="M17.8017 20.6984C17.4565 20.3532 16.9883 20.1592 16.5001 20.1592C16.0118 20.1592 15.5436 20.3532 15.1984 20.6984C14.8532 21.0436 14.6592 21.5119 14.6592 22.0001C14.6592 22.4883 14.8532 22.9565 15.1984 23.3017L20.6984 28.8017C20.8697 28.9717 21.0729 29.1061 21.2962 29.1973C21.5196 29.2886 21.7588 29.3348 22.0001 29.3334C22.251 29.3254 22.4977 29.266 22.7248 29.1588C22.9518 29.0516 23.1544 28.8988 23.3201 28.7101L36.1534 14.0434C36.4497 13.6755 36.5926 13.2074 36.5522 12.7368C36.5119 12.2661 36.2914 11.8292 35.9367 11.5171C35.5821 11.205 35.1207 11.0419 34.6487 11.0617C34.1767 11.0815 33.7306 11.2827 33.4034 11.6234L22.0001 24.8234L17.8017 20.6984Z" fill="#031B72"/>
<path d="M38.5 20.1667C38.0138 20.1667 37.5475 20.3599 37.2037 20.7037C36.8599 21.0475 36.6667 21.5139 36.6667 22.0001C36.6667 25.8899 35.1215 29.6204 32.3709 32.371C29.6204 35.1215 25.8899 36.6667 22 36.6667C19.1035 36.6654 16.2723 35.8065 13.8633 34.1982C11.4543 32.59 9.57541 30.3045 8.4636 27.6298C7.35178 24.9552 7.05681 22.0113 7.61588 19.1692C8.17494 16.3272 9.56301 13.7143 11.605 11.6601C12.963 10.284 14.5818 9.19249 16.3667 8.44957C18.1516 7.70665 20.0667 7.3272 22 7.33341C23.1724 7.34075 24.3404 7.476 25.4834 7.73675C25.7226 7.81073 25.9744 7.83494 26.2233 7.80788C26.4722 7.78082 26.7129 7.70306 26.9306 7.57941C27.1483 7.45575 27.3384 7.28881 27.4891 7.08889C27.6398 6.88896 27.748 6.66029 27.8069 6.41696C27.8659 6.17363 27.8744 5.9208 27.8319 5.67406C27.7894 5.42733 27.6968 5.19191 27.5598 4.98233C27.4228 4.77275 27.2444 4.59344 27.0355 4.45547C26.8265 4.31749 26.5916 4.22377 26.345 4.18008C24.9208 3.84503 23.4631 3.67281 22 3.66675C18.378 3.68556 14.8427 4.77687 11.8403 6.80294C8.83783 8.82902 6.50283 11.6991 5.12993 15.0509C3.75704 18.4027 3.40777 22.0861 4.12621 25.6362C4.84465 29.1864 6.5986 32.4441 9.16672 34.9984C12.5706 38.4039 17.1851 40.3222 22 40.3334C26.8624 40.3334 31.5255 38.4019 34.9637 34.9637C38.4018 31.5255 40.3334 26.8624 40.3334 22.0001C40.3334 21.5139 40.1402 21.0475 39.7964 20.7037C39.4526 20.3599 38.9863 20.1667 38.5 20.1667Z" fill="#031B72"/>
</svg>
